2018-05-08 11:51:59	guest	http://localhost/PERSO/Donc/pw/	Compiled file: /site/templates/home.php
2018-05-08 11:55:05	admin	http://localhost/PERSO/Donc/pw/admin/module/download/	Compiled file: /site/modules/ProcessEmailToPage/ProcessEmailToPage.module
2018-05-08 13:46:29	admin	http://localhost/PERSO/Donc/pw/admin/module/download/	Compiled file: /site/modules/EmailImage/EmailImage.module
2018-05-08 13:46:29	admin	http://localhost/PERSO/Donc/pw/admin/module/download/	Compiled file: /site/modules/EmailImage/EmailImageConfig.php
2018-05-08 13:46:34	admin	http://localhost/PERSO/Donc/pw/admin/module/	Compiled file: /site/modules/EmailImage/EmailImageInstall.php
2018-05-17 15:33:11	admin	http://localhost/PERSO/Donc/pw/	Compiled file: /site/templates/basic-page.php
2018-05-17 15:33:18	admin	http://localhost/PERSO/Donc/pw/	Compiled file: /site/templates/basic-page.php
2018-05-17 15:33:50	admin	http://localhost/PERSO/Donc/pw/	Compiled file: /site/templates/basic-page.php
2018-05-17 15:34:28	admin	http://localhost/PERSO/Donc/pw/	Compiled file: /site/templates/basic-page.php
2018-05-17 15:42:25	admin	http://localhost/PERSO/Donc/pw/	Compiled file: /site/templates/basic-page.php
2018-05-17 15:43:48	admin	http://localhost/PERSO/Donc/pw/?hash=a577d5c545d058b182b9f8d141fcf6477cb8f984	Compiled file: /site/templates/basic-page.php
2018-05-17 15:44:10	admin	http://localhost/PERSO/Donc/pw/?hash=a577d5c545d058b182b9f8d141fcf6477cb8f984	Compiled file: /site/templates/basic-page.php
2018-05-17 15:44:54	admin	http://localhost/PERSO/Donc/pw/?hash=a577d5c545d058b182b9f8d141fcf6477cb8f984	Compiled file: /site/templates/basic-page.php
2018-05-17 15:45:32	admin	http://localhost/PERSO/Donc/pw/?hash=a577d5c545d058b182b9f8d141fcf6477cb8f984	Compiled file: /site/templates/basic-page.php
2018-05-17 15:46:35	admin	http://localhost/PERSO/Donc/pw/?hash=a577d5c545d058b182b9f8d141fcf6477cb8f984	Compiled file: /site/templates/basic-page.php
2018-05-17 15:48:58	admin	http://localhost/PERSO/Donc/pw/?hash=a577d5c545d058b182b9f8d141fcf6477cb8f984	Compiled file: /site/templates/basic-page.php
2018-05-17 15:49:31	admin	http://localhost/PERSO/Donc/pw/?hash=a577d5c545d058b182b9f8d141fcf6477cb8f984	Compiled file: /site/templates/basic-page.php
2018-05-17 15:49:40	admin	http://localhost/PERSO/Donc/pw/?hash=a577d5c545d058b182b9f8d141fcf6477cb8f984	Compiled file: /site/templates/basic-page.php
2018-05-17 15:50:21	admin	http://localhost/PERSO/Donc/pw/?hash=a577d5c545d058b182b9f8d141fcf6477cb8f984	Compiled file: /site/templates/basic-page.php
2018-05-17 15:51:02	admin	http://localhost/PERSO/Donc/pw/?hash=a577d5c545d058b182b9f8d141fcf6477cb8f984	Compiled file: /site/templates/basic-page.php
2018-05-17 15:51:32	admin	http://localhost/PERSO/Donc/pw/?hash=a577d5c545d058b182b9f8d141fcf6477cb8f984	Compiled file: /site/templates/basic-page.php
2018-05-17 15:52:43	admin	http://localhost/PERSO/Donc/pw/?hash=a577d5c545d058b182b9f8d141fcf6477cb8f984	Compiled file: /site/templates/basic-page.php
2018-05-17 15:53:33	admin	http://localhost/PERSO/Donc/pw/?hash=a577d5c545d058b182b9f8d141fcf6477cb8f984	Compiled file: /site/templates/basic-page.php
2018-05-17 16:09:11	admin	http://localhost/PERSO/Donc/pw/?hash=a577d5c545d058b182b9f8d141fcf6477cb8f984	Compiled file: /site/templates/basic-page.php
2018-05-17 16:16:59	admin	http://localhost/PERSO/Donc/pw/?hash=a577d5c545d058b182b9f8d141fcf6477cb8f984	Compiled file: /site/templates/basic-page.php
2018-05-17 16:17:54	admin	http://localhost/PERSO/Donc/pw/?hash=a577d5c545d058b182b9f8d141fcf6477cb8f984	Compiled file: /site/templates/basic-page.php
2018-05-17 16:25:15	admin	http://localhost/PERSO/Donc/pw/	Compiled file: /site/templates/basic-page.php
2018-05-17 16:25:45	admin	http://localhost/PERSO/Donc/pw/	Compiled file: /site/templates/basic-page.php
2018-05-17 16:37:57	admin	http://localhost/PERSO/Donc/pw/	Compiled file: /site/templates/basic-page.php
2018-05-17 16:52:27	admin	http://localhost/PERSO/Donc/pw/	Compiled file: /site/templates/basic-page.php
2018-05-17 16:55:03	admin	http://localhost/PERSO/Donc/pw/?hash=a577d5c545d058b182b9f8d141fcf6477cb8f984	Compiled file: /site/templates/basic-page.php
2018-05-17 16:55:11	admin	http://localhost/PERSO/Donc/pw/?hash=a577d5c545d058b182b9f8d141fcf6477cb8f984	Compiled file: /site/templates/basic-page.php
2018-05-17 17:08:21	guest	http://localhost/PERSO/Donc/pw/	Compiled file: /site/templates/basic-page.php
2018-05-17 17:08:52	guest	http://localhost/PERSO/Donc/pw/	Compiled file: /site/templates/basic-page.php
2018-05-17 17:15:17	guest	http://localhost/PERSO/Donc/pw/	Compiled file: /site/templates/basic-page.php
2018-05-17 17:15:51	guest	http://localhost/PERSO/Donc/pw/	Compiled file: /site/templates/basic-page.php
2018-05-17 17:15:51	guest	http://localhost/PERSO/Donc/pw/	Compiled file: /site/templates/header.php
2018-05-17 17:16:02	guest	http://localhost/PERSO/Donc/pw/	Compiled file: /site/templates/header.php
2018-05-17 17:16:14	guest	http://localhost/PERSO/Donc/pw/	Compiled file: /site/templates/header.php
2018-05-17 17:16:20	guest	http://localhost/PERSO/Donc/pw/	Compiled file: /site/templates/header.php
2018-05-17 17:19:21	guest	http://localhost/PERSO/Donc/pw/	Compiled file: /site/templates/header.php
2018-05-17 17:21:10	guest	http://localhost/PERSO/Donc/pw/	Compiled file: /site/templates/header.php
2018-05-17 17:21:18	guest	http://localhost/PERSO/Donc/pw/	Compiled file: /site/templates/header.php
2018-05-17 17:21:44	guest	http://localhost/PERSO/Donc/pw/posts/test-encodage/	Compiled file: /site/templates/post.php
2018-05-17 17:23:00	guest	http://localhost/PERSO/Donc/pw/posts/test-encodage/	Compiled file: /site/templates/post.php
2018-05-17 17:29:06	guest	http://localhost/PERSO/Donc/pw/	Compiled file: /site/templates/header.php
2018-05-17 17:29:16	guest	http://localhost/PERSO/Donc/pw/	Compiled file: /site/templates/header.php
2018-05-17 17:36:18	guest	http://localhost/PERSO/Donc/pw/	Compiled file: /site/templates/header.php
2018-05-17 17:36:28	guest	http://localhost/PERSO/Donc/pw/	Compiled file: /site/templates/header.php
2018-05-17 17:49:42	guest	http://localhost/PERSO/Donc/pw/	Compiled file: /site/templates/header.php
2018-05-17 17:53:56	guest	http://localhost/PERSO/Donc/pw/	Compiled file: /site/templates/home.php
2018-05-17 17:54:37	admin	http://localhost/PERSO/Donc/pw/	Compiled file: /site/templates/home.php
2018-05-17 17:54:51	admin	http://localhost/PERSO/Donc/pw/	Compiled file: /site/templates/home.php
2018-05-17 17:54:56	admin	http://localhost/PERSO/Donc/pw/	Compiled file: /site/templates/home.php
2018-05-17 17:55:26	admin	http://localhost/PERSO/Donc/pw/	Compiled file: /site/templates/home.php
2018-05-17 17:55:33	admin	http://localhost/PERSO/Donc/pw/	Compiled file: /site/templates/home.php
2018-05-17 17:55:37	admin	http://localhost/PERSO/Donc/pw/	Compiled file: /site/templates/home.php
2018-05-17 17:56:18	admin	http://localhost/PERSO/Donc/pw/	Compiled file: /site/templates/home.php
2018-05-17 17:56:25	admin	http://localhost/PERSO/Donc/pw/	Compiled file: /site/templates/home.php
2018-05-17 17:57:45	admin	http://localhost/PERSO/Donc/pw/	Compiled file: /site/templates/header.php
2018-05-17 17:58:07	admin	http://localhost/PERSO/Donc/pw/	Compiled file: /site/templates/header.php
2018-05-17 18:05:48	admin	http://localhost/PERSO/Donc/pw/	Compiled file: /site/templates/header.php
2018-05-17 18:06:03	admin	http://localhost/PERSO/Donc/pw/	Compiled file: /site/templates/header.php
2018-05-17 18:06:09	admin	http://localhost/PERSO/Donc/pw/	Compiled file: /site/templates/header.php
2018-05-17 18:07:27	admin	http://localhost/PERSO/Donc/pw/	Compiled file: /site/templates/header.php
2018-05-17 18:07:35	admin	http://localhost/PERSO/Donc/pw/	Compiled file: /site/templates/header.php
2018-05-17 18:29:11	admin	http://localhost/PERSO/Donc/pw/book/	Compiled file: /site/templates/book.php
2018-05-17 18:32:03	admin	http://localhost/PERSO/Donc/pw/book/	Compiled file: /site/templates/book.php
2018-05-17 18:34:32	admin	http://localhost/PERSO/Donc/pw/book/	Compiled file: /site/templates/book.php
2018-05-17 18:34:59	admin	http://localhost/PERSO/Donc/pw/book/	Compiled file: /site/templates/book.php
2018-05-17 18:39:58	admin	http://localhost/PERSO/Donc/pw/	Compiled file: /site/templates/home.php
2018-05-17 18:40:06	admin	http://localhost/PERSO/Donc/pw/	Compiled file: /site/templates/home.php
2018-05-17 18:40:15	admin	http://localhost/PERSO/Donc/pw/	Compiled file: /site/templates/home.php
2018-05-17 18:40:30	admin	http://localhost/PERSO/Donc/pw/	Compiled file: /site/templates/home.php
2018-05-17 18:40:38	admin	http://localhost/PERSO/Donc/pw/	Compiled file: /site/templates/home.php
2018-05-17 18:41:20	admin	http://localhost/PERSO/Donc/pw/	Compiled file: /site/templates/home.php
2018-05-17 18:41:41	admin	http://localhost/PERSO/Donc/pw/	Compiled file: /site/templates/home.php
2018-05-17 18:41:52	admin	http://localhost/PERSO/Donc/pw/	Compiled file: /site/templates/home.php
2018-05-17 18:42:24	admin	http://localhost/PERSO/Donc/pw/	Compiled file: /site/templates/home.php
2018-05-17 18:43:13	admin	http://localhost/PERSO/Donc/pw/	Compiled file: /site/templates/home.php
2018-05-17 18:43:34	admin	http://localhost/PERSO/Donc/pw/	Compiled file: /site/templates/home.php
2018-05-17 18:44:37	admin	http://localhost/PERSO/Donc/pw/	Compiled file: /site/templates/home.php
2018-05-17 18:44:50	admin	http://localhost/PERSO/Donc/pw/	Compiled file: /site/templates/home.php
2018-05-17 18:46:50	admin	http://localhost/PERSO/Donc/pw/	Compiled file: /site/templates/home.php
2018-05-17 18:47:07	admin	http://localhost/PERSO/Donc/pw/	Compiled file: /site/templates/home.php
2018-05-17 18:48:22	admin	http://localhost/PERSO/Donc/pw/	Compiled file: /site/templates/home.php
2018-05-17 18:49:33	admin	http://localhost/PERSO/Donc/pw/	Compiled file: /site/templates/header.php
2018-05-17 18:49:44	admin	http://localhost/PERSO/Donc/pw/	Compiled file: /site/templates/header.php
2018-05-17 18:49:46	admin	http://localhost/PERSO/Donc/pw/http404/	Compiled file: /site/templates/basic-page.php
2018-05-17 18:49:53	admin	http://localhost/PERSO/Donc/pw/http404/	Compiled file: /site/templates/header.php
2018-05-17 18:52:15	admin	http://localhost/PERSO/Donc/pw/	Compiled file: /site/templates/header.php
2018-05-17 18:53:10	admin	http://localhost/PERSO/Donc/pw/book/	Compiled file: /site/templates/header.php
2018-05-17 18:55:49	admin	http://localhost/PERSO/Donc/pw/book/	Compiled file: /site/templates/header.php
2018-05-17 18:56:36	admin	http://localhost/PERSO/Donc/pw/	Compiled file: /site/templates/header.php
2018-05-17 19:00:30	admin	http://localhost/PERSO/Donc/pw/book/	Compiled file: /site/templates/header.php
2018-05-17 21:12:28	admin	http://localhost/PERSO/Donc/pw/	Compiled file: /site/templates/home.php
2018-05-17 21:12:28	admin	http://localhost/PERSO/Donc/pw/	Compiled file: /site/templates/header.php
2018-05-17 21:12:36	admin	http://localhost/PERSO/Donc/pw/posts/peji/	Compiled file: /site/templates/post.php
2018-05-17 21:12:47	admin	http://localhost/PERSO/Donc/pw/http404/	Compiled file: /site/templates/basic-page.php
2018-05-17 21:18:23	admin	http://localhost/PERSO/Donc/pw/book/	Compiled file: /site/templates/book.php
2018-05-17 21:20:24	admin	http://localhost/PERSO/Donc/pw/posts/peji/	Compiled file: /site/templates/single-post.php
2018-05-17 21:21:14	admin	http://localhost/PERSO/Donc/pw/	Compiled file: /site/templates/home.php
2018-05-17 21:21:16	admin	http://localhost/PERSO/Donc/pw/book/	Compiled file: /site/templates/book.php
2018-05-18 07:53:17	admin	http://localhost/PERSO/Donc/pw/	Compiled file: /site/templates/header.php
2018-05-20 09:35:48	guest	http://localhost/PERSO/Donc/pw/	Maintenance/Copy new version of source file to target file: /site/templates/admin.php => /site/assets/cache/FileCompiler/site/templates/admin.php
2018-05-20 09:35:48	guest	http://localhost/PERSO/Donc/pw/	Maintenance/Remove target file: /site/assets/cache/FileCompiler/site/templates/post.php
2018-05-20 09:41:02	guest	http://localhost/PERSO/Donc/pw/book/	Compiled file: /site/templates/header.php
2018-05-20 09:41:59	guest	http://localhost/PERSO/Donc/pw/book/	Compiled file: /site/templates/header.php
2018-05-20 09:45:48	guest	http://localhost/PERSO/Donc/pw/book/	Compiled file: /site/templates/header.php
2018-05-20 10:04:32	admin	http://localhost/PERSO/Donc/pw/	Compiled file: /site/templates/header.php
2018-05-20 10:34:15	admin	http://localhost/PERSO/Donc/pw/book/	Compiled file: /site/templates/book.php
2018-05-20 11:48:23	admin	http://localhost/PERSO/Donc/pw/book/	Compiled file: /site/templates/book.php
2018-05-20 11:56:11	admin	http://localhost/PERSO/Donc/pw/book/	Compiled file: /site/templates/book.php
2018-05-20 11:57:07	admin	http://localhost/PERSO/Donc/pw/book/	Compiled file: /site/templates/book.php
2018-05-20 11:58:35	admin	http://localhost/PERSO/Donc/pw/book/	Compiled file: /site/templates/book.php
2018-05-20 12:33:23	admin	http://localhost/PERSO/Donc/pw/book/	Compiled file: /site/templates/book.php
2018-05-20 12:36:05	admin	http://localhost/PERSO/Donc/pw/book/	Compiled file: /site/templates/book.php
2018-05-20 12:38:45	admin	http://localhost/PERSO/Donc/pw/book/	Compiled file: /site/templates/book.php
2018-05-20 12:40:55	admin	http://localhost/PERSO/Donc/pw/book/	Compiled file: /site/templates/book.php
2018-05-20 12:41:20	admin	http://localhost/PERSO/Donc/pw/book/	Compiled file: /site/templates/book.php
2018-05-20 12:41:30	admin	http://localhost/PERSO/Donc/pw/book/	Compiled file: /site/templates/book.php
2018-05-21 13:18:47	guest	http://localhost/PERSO/Donc/pw/book/	Compiled file: /site/templates/book.php
2018-05-21 13:50:29	guest	http://localhost/PERSO/Donc/pw/book/	Compiled file: /site/templates/book.php
2018-05-21 13:52:21	guest	http://localhost/PERSO/Donc/pw/book/	Compiled file: /site/templates/book.php
2018-05-21 13:52:28	guest	http://localhost/PERSO/Donc/pw/book/	Compiled file: /site/templates/book.php
2018-05-21 13:53:36	guest	http://localhost/PERSO/Donc/pw/book/	Compiled file: /site/templates/book.php
2018-05-21 13:54:06	guest	http://localhost/PERSO/Donc/pw/book/	Compiled file: /site/templates/book.php
2018-05-21 13:55:42	guest	http://localhost/PERSO/Donc/pw/book/	Compiled file: /site/templates/book.php
2018-05-21 13:59:07	guest	http://localhost/PERSO/Donc/pw/book/	Compiled file: /site/templates/book.php
2018-05-21 14:54:49	admin	http://localhost/PERSO/Donc/pw/book/	Compiled file: /site/templates/book.php
2018-05-21 15:18:46	admin	http://localhost/PERSO/Donc/pw/book/	Compiled file: /site/templates/book.php
2018-05-21 21:50:54	admin	http://localhost/PERSO/Donc/pw/book/	Compiled file: /site/templates/book.php
2018-05-21 21:51:09	admin	http://localhost/PERSO/Donc/pw/book/	Compiled file: /site/templates/book.php
2018-05-21 21:51:28	admin	http://localhost/PERSO/Donc/pw/book/	Compiled file: /site/templates/book.php
2018-05-21 21:51:48	admin	http://localhost/PERSO/Donc/pw/book/	Compiled file: /site/templates/book.php
2018-05-21 21:57:59	admin	http://localhost/PERSO/Donc/pw/book/	Compiled file: /site/templates/book.php
2018-05-21 21:59:23	admin	http://localhost/PERSO/Donc/pw/book/	Compiled file: /site/templates/book.php
2018-05-21 22:07:05	admin	http://localhost/PERSO/Donc/pw/book/	Compiled file: /site/templates/book.php
2018-05-21 22:07:33	admin	http://localhost/PERSO/Donc/pw/book/	Compiled file: /site/templates/book.php
2018-05-21 22:07:43	admin	http://localhost/PERSO/Donc/pw/book/	Compiled file: /site/templates/book.php
2018-05-21 22:07:56	admin	http://localhost/PERSO/Donc/pw/book/	Compiled file: /site/templates/book.php
2018-05-22 11:57:56	admin	http://localhost/PERSO/Donc/pw/http404/	Compiled file: /site/templates/header.php
2018-05-22 11:58:26	admin	http://localhost/PERSO/Donc/pw/http404/	Compiled file: /site/templates/header.php
2018-05-22 11:58:28	admin	http://localhost/PERSO/Donc/pw/book/	Compiled file: /site/templates/book.php
2018-05-22 12:03:01	admin	http://localhost/PERSO/Donc/pw/book/	Compiled file: /site/templates/book.php
2018-05-22 12:06:45	admin	http://localhost/PERSO/Donc/pw/book/	Compiled file: /site/templates/book.php
2018-05-22 12:09:22	admin	http://localhost/PERSO/Donc/pw/book/	Compiled file: /site/templates/header.php
2018-05-22 12:11:05	admin	http://localhost/PERSO/Donc/pw/book/	Compiled file: /site/templates/book.php
2018-05-22 12:12:34	admin	http://localhost/PERSO/Donc/pw/book/	Compiled file: /site/templates/book.php
2018-05-22 12:14:06	admin	http://localhost/PERSO/Donc/pw/book/	Compiled file: /site/templates/book.php
2018-05-22 12:14:33	admin	http://localhost/PERSO/Donc/pw/book/	Compiled file: /site/templates/book.php
2018-05-22 12:15:05	admin	http://localhost/PERSO/Donc/pw/book/	Compiled file: /site/templates/book.php
2018-05-22 12:15:43	admin	http://localhost/PERSO/Donc/pw/book/	Compiled file: /site/templates/book.php
2018-05-22 12:26:41	admin	http://localhost/PERSO/Donc/pw/book/	Compiled file: /site/templates/book.php
2018-05-22 12:34:46	guest	http://localhost/PERSO/Donc/pw/book/	Compiled file: /site/templates/book.php
2018-05-22 12:42:32	guest	http://localhost/PERSO/Donc/pw/book/	Compiled file: /site/templates/book.php
2018-05-22 12:50:06	guest	http://localhost/PERSO/Donc/pw/book/	Maintenance/Copy new version of source file to target file: /site/templates/clock.php => /site/assets/cache/FileCompiler/site/templates/clock.php
2018-05-22 13:00:18	admin	http://localhost/PERSO/Donc/pw/book/	Compiled file: /site/templates/book.php
2018-05-22 13:01:45	admin	http://localhost/PERSO/Donc/pw/book/	Compiled file: /site/templates/book.php
2018-05-22 13:40:27	guest	http://localhost/PERSO/Donc/pw/book/	Compiled file: /site/templates/book.php
2018-05-22 13:40:27	guest	http://localhost/PERSO/Donc/pw/book/	Compiled file: /site/templates/header.php
2018-05-22 13:50:55	admin	http://localhost/PERSO/Donc/pw/book/	Compiled file: /site/templates/book.php
2018-05-22 13:51:04	admin	http://localhost/PERSO/Donc/pw/book/	Compiled file: /site/templates/book.php
2018-05-22 13:51:28	admin	http://localhost/PERSO/Donc/pw/book/	Compiled file: /site/templates/book.php
2018-05-22 13:51:35	admin	http://localhost/PERSO/Donc/pw/book/	Compiled file: /site/templates/book.php
2018-05-22 13:51:54	admin	http://localhost/PERSO/Donc/pw/book/	Compiled file: /site/templates/book.php
2018-05-22 13:51:58	admin	http://localhost/PERSO/Donc/pw/book/	Compiled file: /site/templates/book.php
2018-05-22 13:52:05	admin	http://localhost/PERSO/Donc/pw/book/	Compiled file: /site/templates/book.php
2018-05-22 13:52:37	admin	http://localhost/PERSO/Donc/pw/book/	Compiled file: /site/templates/book.php
2018-05-22 13:52:50	admin	http://localhost/PERSO/Donc/pw/book/	Compiled file: /site/templates/book.php
2018-05-22 13:53:55	admin	http://localhost/PERSO/Donc/pw/book/	Compiled file: /site/templates/book.php
2018-05-22 13:54:13	admin	http://localhost/PERSO/Donc/pw/book/	Compiled file: /site/templates/book.php
2018-05-22 13:55:52	admin	http://localhost/PERSO/Donc/pw/book/	Compiled file: /site/templates/book.php
2018-05-22 13:56:09	admin	http://localhost/PERSO/Donc/pw/book/	Compiled file: /site/templates/book.php
2018-05-22 13:57:20	admin	http://localhost/PERSO/Donc/pw/book/	Compiled file: /site/templates/book.php
2018-05-22 14:07:38	admin	http://localhost/PERSO/Donc/pw/book/	Compiled file: /site/templates/book.php
2018-05-22 14:10:26	admin	http://localhost/PERSO/Donc/pw/book/	Compiled file: /site/templates/book.php
2018-05-22 14:10:38	admin	http://localhost/PERSO/Donc/pw/book/	Compiled file: /site/templates/book.php
2018-05-22 14:19:14	admin	http://localhost/PERSO/Donc/pw/book/	Compiled file: /site/templates/book.php
2018-05-22 14:20:34	admin	http://localhost/PERSO/Donc/pw/book/	Compiled file: /site/templates/book.php
2018-05-22 14:27:07	admin	http://localhost/PERSO/Donc/pw/book/	Compiled file: /site/templates/book.php
2018-05-22 14:35:25	admin	http://localhost/PERSO/Donc/pw/book/	Compiled file: /site/templates/book.php
2018-05-22 14:42:52	admin	http://localhost/PERSO/Donc/pw/	Compiled file: /site/templates/home.php
2018-05-22 14:45:24	admin	http://localhost/PERSO/Donc/pw/	Compiled file: /site/templates/home.php
2018-05-22 14:45:34	admin	http://localhost/PERSO/Donc/pw/	Compiled file: /site/templates/home.php
2018-05-22 15:26:54	admin	http://localhost/PERSO/Donc/pw/?hash=a577d5c545d058b182b9f8d141fcf6477cb8f984	Compiled file: /site/templates/home.php
2018-05-22 15:30:45	admin	http://localhost/PERSO/Donc/pw/book/	Compiled file: /site/templates/book.php
2018-05-22 15:32:11	admin	http://localhost/PERSO/Donc/pw/book/	Compiled file: /site/templates/book.php
2018-05-22 15:32:23	admin	http://localhost/PERSO/Donc/pw/book/	Compiled file: /site/templates/book.php
2018-05-22 15:34:35	admin	http://localhost/PERSO/Donc/pw/book/	Compiled file: /site/templates/book.php
2018-05-22 16:11:24	admin	http://localhost/PERSO/Donc/pw/book/	Compiled file: /site/templates/book.php
2018-05-22 16:11:54	admin	http://localhost/PERSO/Donc/pw/book/	Compiled file: /site/templates/book.php
2018-05-22 16:13:05	admin	http://localhost/PERSO/Donc/pw/book/	Compiled file: /site/templates/book.php
2018-05-22 16:17:03	admin	http://localhost/PERSO/Donc/pw/book/	Compiled file: /site/templates/book.php
2018-05-22 20:03:52	admin	http://localhost/PERSO/Donc/pw/book/	Compiled file: /site/templates/book.php
2018-05-22 20:04:21	admin	http://localhost/PERSO/Donc/pw/book/	Compiled file: /site/templates/book.php
2018-05-22 20:06:18	admin	http://localhost/PERSO/Donc/pw/book/	Compiled file: /site/templates/book.php
2018-05-22 20:07:04	admin	http://localhost/PERSO/Donc/pw/book/	Compiled file: /site/templates/book.php
2018-05-22 20:07:40	admin	http://localhost/PERSO/Donc/pw/book/	Compiled file: /site/templates/book.php
2018-05-22 20:09:29	admin	http://localhost/PERSO/Donc/pw/book/	Compiled file: /site/templates/book.php
2018-05-22 20:09:44	admin	http://localhost/PERSO/Donc/pw/book/	Compiled file: /site/templates/book.php
2018-05-22 20:09:54	admin	http://localhost/PERSO/Donc/pw/book/	Compiled file: /site/templates/book.php
2018-05-22 20:13:06	guest	http://localhost/PERSO/Donc/pw/book/	Compiled file: /site/templates/book.php
2018-05-22 20:14:00	guest	http://localhost/PERSO/Donc/pw/book/	Compiled file: /site/templates/book.php
2018-05-22 20:17:42	admin	http://localhost/PERSO/Donc/pw/book/	Compiled file: /site/templates/book.php
2018-05-22 20:18:27	admin	http://localhost/PERSO/Donc/pw/book/	Compiled file: /site/templates/book.php
2018-05-22 20:26:19	admin	http://localhost/PERSO/Donc/pw/book/	Compiled file: /site/templates/book.php
